{
  "variables": {
    "subscription_id": "{{env `ARM_SUBSCRIPTION_ID`}}"
  },
  "builders": [
    {
      "type": "azure-arm",

      "subscription_id": "{{user `subscription_id`}}",

      "managed_image_resource_group_name": "{{user `resource_group_name`}}",
      "managed_image_name": "{{user `image_name`}}",

      "os_type": "Linux",
      "image_publisher": "Canonical",
      "image_offer": "UbuntuServer",
      "image_sku": "16.04-LTS",

      "location": "{{user `location`}}",
      "vm_size": "Standard_D12_v2"
    }
  ],
  "provisioners": [
    {
      "type": "shell",
      "execute_command": "chmod +x {{ .Path }}; {{ .Vars }} sudo -E sh '{{ .Path }}'",
      "inline": [
        "apt-get install software-properties-common",
        "apt-add-repository ppa:ansible/ansible",
        "apt-get update",
        "sudo apt-get -y install ansible"
      ]
    },
    {
      "type": "ansible-local",
      "playbook_file": "playbook.yml",
      "playbook_dir": ".",
      "galaxy_file": "requirements.yml"
    },
    {
      "type": "shell",
      "execute_command": "chmod +x {{ .Path }}; {{ .Vars }} sudo -E sh '{{ .Path }}'",
      "inline": [
        "/usr/sbin/waagent -force -deprovision+user && export HISTSIZE=0 && sync"
      ],
      "inline_shebang": "/bin/sh -x"
    }
  ]
}